  {
    "Time":
    {
        "S":"2017-05-08T06:30:00.000Z"
    },
    "Key":
    {
        "S":"Flight00001"
    },
    "Origin":
    {
        "S":"DUBLIN"
    },
    "Destination":
    {
        "S":"LONDON"
    }
  }