{
    "Time":
    {
        "S":"2017-05-08T12:00:00.000Z"
    },
    "Key":
    {
        "S":"Flight00052"
    },
    "Origin":
    {
        "S":"DUBLIN"
    },
    "Destination":
    {
        "S":"LONDON"
    }
}