{
    "Time":
    {
        "S":"2017-05-09T11:30:00.000Z"
    },
    "Key":
    {
        "S":"Flight10001"
    },
    "Origin":
    {
        "S":"LONDON"
    },
    "Destination":
    {
        "S":"DUBLIN"
    }
}